%YAML 1.1
%TAG !u! tag:unity3d.com,2011:
--- !u!114 &11400000
MonoBehaviour:
  m_ObjectHideFlags: 0
  m_CorrespondingSourceObject: {fileID: 0}
  m_PrefabInstance: {fileID: 0}
  m_PrefabAsset: {fileID: 0}
  m_GameObject: {fileID: 0}
  m_Enabled: 1
  m_EditorHideFlags: 0
  m_Script: {fileID: 11500000, guid: 9a7069e3f7c761e4fb21a319bdaeb41b, type: 3}
  m_Name: Option 1
  m_EditorClassIdentifier: 
  number: 1
  _taskDescriptions:
    keyData: 00000000010000000200000003000000
    valueData:
    - "\u0412 \u043E\u0440\u0433\u0430\u043D\u0438\u0437\u0430\u0446\u0438\u044E,
      \u0441\u043F\u0435\u0446\u0438\u0430\u043B\u0438\u0437\u0438\u0440\u0443\u044E\u0449\u0443\u044E\u0441\u044F
      \u0440\u0430\u0437\u0440\u0430\u0431\u043E\u0442\u043A\u043E\u0439 \u043F\u0440\u043E\u0433\u0440\u0430\u043C\u043C\u043D\u043E\u0433\u043E
      \u043E\u0431\u0435\u0441\u043F\u0435\u0447\u0435\u043D\u0438\u044F \xABIT-pro\xBB
      \u043E\u0431\u0440\u0430\u0449\u0430\u0435\u0442\u0441\u044F \u043A\u043E\u043C\u043C\u0435\u0440\u0447\u0435\u0441\u043A\u0430\u044F
      \u043A\u043E\u043C\u043F\u0430\u043D\u0438\u044F \u0434\u043B\u044F \u0441\u043E\u0437\u0434\u0430\u043D\u0438\u044F
      \u0438\u043D\u0444\u043E\u0440\u043C\u0430\u0446\u0438\u043E\u043D\u043D\u043E\u0439
      \u0441\u0438\u0441\u0442\u0435\u043C\u044B \u0443\u043F\u0440\u0430\u0432\u043B\u0435\u043D\u0438\u044F
      \u0433\u0440\u0443\u0437\u043E\u043F\u0435\u0440\u0435\u0432\u043E\u0437\u043A\u0430\u043C\u0438.\n\u0417\u0430\u043A\u0430\u0437\u0447\u0438\u043A
      \u043E\u043F\u0438\u0441\u0430\u043B \u043F\u0440\u0435\u0434\u043C\u0435\u0442\u043D\u0443\u044E
      \u043E\u0431\u043B\u0430\u0441\u0442\u044C \u0440\u0430\u0437\u0440\u0430\u0431\u0430\u0442\u044B\u0432\u0430\u0435\u043C\u043E\u0439
      \u0431\u0430\u0437\u044B \u0434\u0430\u043D\u043D\u044B\u0445: \xAB\u0411\u0430\u0437\u0430
      \u0434\u0430\u043D\u043D\u044B\u0445 \u0413\u0440\u0443\u0437\u043E\u043F\u0435\u0440\u0435\u0432\u043E\u0437\u043A\u0438
      \u043F\u0440\u0435\u0434\u043D\u0430\u0437\u043D\u0430\u0447\u0435\u043D\u0430
      \u0434\u043B\u044F \u0430\u0432\u0442\u043E\u043C\u0430\u0442\u0438\u0437\u0430\u0446\u0438\u0438
      \u0440\u0430\u0431\u043E\u0442\u044B \u043A\u043E\u043C\u043F\u0430\u043D\u0438\u0438,
      \u0437\u0430\u043D\u0438\u043C\u0430\u044E\u0449\u0435\u0439\u0441\u044F \u043F\u0435\u0440\u0435\u0432\u043E\u0437\u043A\u043E\u0439
      \u0433\u0440\u0443\u0437\u043E\u0432 \u043F\u043E\u0441\u0440\u0435\u0434\u0441\u0442\u0432\u043E\u043C
      \u0433\u0440\u0443\u0437\u043E\u0432\u043E\u0433\u043E \u0442\u0440\u0430\u043D\u0441\u043F\u043E\u0440\u0442\u0430.
      \u0411\u0430\u0437\u0430 \u0434\u0430\u043D\u043D\u044B\u0445 \u0434\u043E\u043B\u0436\u043D\u0430
      \u043E\u0431\u0435\u0441\u043F\u0435\u0447\u0438\u0432\u0430\u0442\u044C \u0445\u0440\u0430\u043D\u0435\u043D\u0438\u0435
      \u0438 \u0430\u043D\u0430\u043B\u0438\u0437 \u0434\u0430\u043D\u043D\u044B\u0445
      \u043E \u043F\u0440\u0435\u0434\u043E\u0441\u0442\u0430\u0432\u043B\u044F\u0435\u043C\u044B\u0445
      <color=\"#B20000\">\u0443\u0441\u043B\u0443\u0433\u0430\u0445</color>, <color=\"#B20000\">\u0442\u0440\u0430\u043D\u0441\u043F\u043E\u0440\u0442\u0435</color>,
      \u043E <color=\"#B20000\">\u0432\u043E\u0434\u0438\u0442\u0435\u043B\u044F\u0445</color>,
      <color=\"#B20000\">\u043E\u0440\u0433\u0430\u043D\u0438\u0437\u0430\u0446\u0438\u044F\u0445</color>,
      \u043E <color=\"#B20000\">\u0437\u0430\u043A\u0430\u0437\u0430\u0445</color>.
      \r\n\u041A\u043E\u043C\u043F\u0430\u043D\u0438\u044F \u043F\u0440\u0435\u0434\u043E\u0441\u0442\u0430\u0432\u043B\u044F\u0435\u0442
      \u0441\u043B\u0435\u0434\u0443\u044E\u0449\u0438\u0435 \u0443\u0441\u043B\u0443\u0433\u0438:
      \u0434\u043E\u0441\u0442\u0430\u0432\u043A\u0430 \u0432 \u0442\u043E\u0440\u0433\u043E\u0432\u044B\u0435
      \u0441\u0435\u0442\u0438, \u043F\u0435\u0440\u0435\u0432\u043E\u0437\u043A\u0430
      \u0441\u0431\u043E\u0440\u043D\u043E\u0433\u043E \u0433\u0440\u0443\u0437\u0430,
      \u044D\u043A\u0441\u043F\u0440\u0435\u0441\u0441-\u043F\u0435\u0440\u0435\u0432\u043E\u0437\u043A\u0430.
      \u0414\u043B\u044F \u043F\u0435\u0440\u0435\u0432\u043E\u0437\u043A\u0438 \u0433\u0440\u0443\u0437\u043E\u0432
      \u043A\u043E\u043C\u043F\u0430\u043D\u0438\u044F \u0438\u0441\u043F\u043E\u043B\u044C\u0437\u0443\u0435\u0442
      \u0441\u043E\u0431\u0441\u0442\u0432\u0435\u043D\u043D\u044B\u0439 \u0433\u0440\u0443\u0437\u043E\u0432\u043E\u0439
      \u0442\u0440\u0430\u043D\u0441\u043F\u043E\u0440\u0442. \u0412 \u043A\u043E\u043C\u043F\u0430\u043D\u0438\u0438
      \u0440\u0430\u0431\u043E\u0442\u0430\u0435\u0442 \u0446\u0435\u043B\u044B\u0439
      \u0448\u0442\u0430\u0442 \u0432\u043E\u0434\u0438\u0442\u0435\u043B\u0435\u0439.
      \u0412 \u043A\u0430\u0447\u0435\u0441\u0442\u0432\u0435 \u0437\u0430\u043A\u0430\u0437\u0447\u0438\u043A\u043E\u0432
      \u0433\u0440\u0443\u0437\u043E\u0432\u044B\u0445 \u043F\u0435\u0440\u0435\u0432\u043E\u0437\u043E\u043A
      \u043C\u043E\u0433\u0443\u0442 \u0432\u044B\u0441\u0442\u0443\u043F\u0430\u0442\u044C
      \u044E\u0440\u0438\u0434\u0438\u0447\u0435\u0441\u043A\u0438\u0435 \u043E\u0440\u0433\u0430\u043D\u0438\u0437\u0430\u0446\u0438\u0438\n\u0418\u0441\u0445\u043E\u0434\u044F
      \u0438\u0437 \u043E\u043F\u0438\u0441\u0430\u043D\u0438\u044F \u043F\u0440\u0435\u0434\u043C\u0435\u0442\u043D\u043E\u0439
      \u043E\u0431\u043B\u0430\u0441\u0442\u0438, \u043F\u0440\u043E\u0433\u0440\u0430\u043C\u043C\u0438\u0441\u0442\u0443
      \u043F\u043E\u0441\u0442\u0430\u0432\u043B\u0435\u043D\u0430 \u0437\u0430\u0434\u0430\u0447\u0430
      \u2013 \u0432\u044B\u043F\u043E\u043B\u043D\u0438\u0442\u044C \u043A\u043E\u043D\u0446\u0435\u043F\u0442\u0443\u0430\u043B\u044C\u043D\u043E\u0435
      \u043F\u0440\u043E\u0435\u043A\u0442\u0438\u0440\u043E\u0432\u0430\u043D\u0438\u0435
      \u0431\u0430\u0437\u044B \u0434\u0430\u043D\u043D\u044B\u0445, \u0430 \u0438\u043C\u0435\u043D\u043D\u043E
      \u0432\u044B\u043F\u043E\u043B\u043D\u0438\u0442\u044C:\r\n    \u0421\u0444\u043E\u0440\u043C\u0443\u043B\u0438\u0440\u043E\u0432\u0430\u0442\u044C
      \u0441\u0443\u0449\u043D\u043E\u0441\u0442\u0438;\r\n    \u041F\u0435\u0440\u0435\u0447\u0438\u0441\u043B\u0438\u0442\u044C
      \u0441\u0432\u044F\u0437\u0438 \u0438 \u0438\u0445 \u0442\u0438\u043F\u044B
      \u043C\u0435\u0436\u0434\u0443 \u0441\u0443\u0449\u043D\u043E\u0441\u0442\u044F\u043C\u0438;\r\n   
      \u041F\u043E\u0441\u0442\u0440\u043E\u0438\u0442\u044C \u0433\u0440\u0430\u0444\u0438\u0447\u0435\u0441\u043A\u0443\u044E
      \u0441\u0445\u0435\u043C\u0443 ER-\u043C\u043E\u0434\u0435\u043B\u0438"
    - "\u041A\u043E\u043C\u043F\u0430\u043D\u0438\u044F, \u043E\u0441\u0443\u0449\u0435\u0441\u0442\u0432\u043B\u044F\u044E\u0449\u0430\u044F
      \u0433\u0440\u0443\u0437\u043E\u043F\u0435\u0440\u0435\u0432\u043E\u0437\u043A\u0438,
      \u0441\u0444\u043E\u0440\u043C\u0443\u043B\u0438\u0440\u043E\u0432\u0430\u043B\u0430
      \u0442\u0440\u0435\u0431\u043E\u0432\u0430\u043D\u0438\u044F \u043A \u0434\u0430\u043D\u043D\u044B\u043C,
      \u043A\u043E\u0442\u043E\u0440\u044B\u0435 \u043D\u0435\u043E\u0431\u0445\u043E\u0434\u0438\u043C\u043E
      \u0441\u043E\u0445\u0440\u0430\u043D\u044F\u0442\u044C \u0432 \u0431\u0430\u0437\u0435
      \u0434\u0430\u043D\u043D\u044B\u0445. \u0422\u0430\u043A \u0438\u043D\u0444\u043E\u0440\u043C\u0430\u0446\u0438\u044F
      \u043E \u0432\u043E\u0434\u0438\u0442\u0435\u043B\u044F\u0445 \u0434\u043E\u043B\u0436\u043D\u0430
      \u0432\u043A\u043B\u044E\u0447\u0430\u0442\u044C: \u0424\u0418\u041E, \u043F\u0430\u0441\u043F\u043E\u0440\u0442\u043D\u044B\u0435
      \u0434\u0430\u043D\u043D\u044B\u0435, \u0430\u0434\u0440\u0435\u0441 \u043F\u0440\u043E\u0436\u0438\u0432\u0430\u043D\u0438\u044F,
      \u0434\u0430\u0442\u0430 \u0440\u043E\u0436\u0434\u0435\u043D\u0438\u044F,
      \u0443\u0434\u043E\u0441\u0442\u043E\u0432\u0435\u0440\u0435\u043D\u0438\u0435.
      \u0422\u0440\u0430\u043D\u0441\u043F\u043E\u0440\u0442\u043D\u044B\u0435 \u0441\u0440\u0435\u0434\u0441\u0442\u0432\u0430
      \u0434\u043E\u043B\u0436\u043D\u044B \u0441\u043E\u0434\u0435\u0440\u0436\u0430\u0442\u044C
      \u0441\u043B\u0435\u0434\u0443\u044E\u0449\u0438\u0435 \u0430\u0442\u0440\u0438\u0431\u0443\u0442\u044B:
      \u0433\u043E\u0441\u043D\u043E\u043C\u0435\u0440, \u043C\u0430\u0440\u043A\u0430,
      \u0433\u0440\u0443\u0437\u043E\u043F\u043E\u0434\u044A\u0435\u043C\u043D\u043E\u0441\u0442\u044C,
      \u0438\u0437\u043D\u043E\u0441 (\u0432 \u043F\u0440\u043E\u0446\u0435\u043D\u0442\u0430\u0445),
      \u0433\u043E\u0434 \u0432\u044B\u043F\u0443\u0441\u043A\u0430 \u0438 \u0442\u0438\u043F
      \u043A\u0443\u0437\u043E\u0432\u0430. \u0414\u043B\u044F \u043E\u0431\u0435\u0441\u043F\u0435\u0447\u0435\u043D\u0438\u044F
      \u0431\u043E\u043B\u0435\u0435 \u0442\u043E\u0447\u043D\u043E\u0439 \u0438\u043D\u0444\u043E\u0440\u043C\u0430\u0446\u0438\u0438
      \u043E \u043E\u0440\u0433\u0430\u043D\u0438\u0437\u0430\u0446\u0438\u044F\u0445,
      \u0437\u0430\u043A\u0430\u0437\u0447\u0438\u043A\u0430\u0445 \u043F\u0435\u0440\u0435\u0432\u043E\u0437\u043E\u043A,
      \u043D\u0435\u043E\u0431\u0445\u043E\u0434\u0438\u043C\u043E \u043E\u0431\u0435\u0441\u043F\u0435\u0447\u0438\u0442\u044C
      \u0445\u0440\u0430\u043D\u0435\u043D\u0438\u0435 \u0441\u043B\u0435\u0434\u0443\u044E\u0449\u0438\u0445
      \u0434\u0430\u043D\u043D\u044B\u0445: \u043D\u0430\u0437\u0432\u0430\u043D\u0438\u0435,
      \u0430\u0434\u0440\u0435\u0441, \u0442\u0435\u043B\u0435\u0444\u043E\u043D,
      \u0440\u0430\u0441\u0447\u0435\u0442\u043D\u044B\u0439 \u0441\u0447\u0435\u0442.
      \u0423\u0441\u043B\u0443\u0433\u0438 \u043A\u043E\u043C\u043F\u0430\u043D\u0438\u0438
      \u0432\u043A\u043B\u044E\u0447\u0430\u0442 \u043D\u0430\u0437\u0432\u0430\u043D\u0438\u0435
      \u0438 \u0441\u0442\u043E\u0438\u043C\u043E\u0441\u0442\u044C (\u043D\u0430
      1 \u0442\u043E\u043D\u0443 \u0433\u0440\u0443\u0437\u0430). \u0414\u043B\u044F
      \u043E\u0431\u0435\u0441\u043F\u0435\u0447\u0435\u043D\u0438\u044F \u0430\u0432\u0442\u043E\u043C\u0430\u0442\u0438\u0437\u0430\u0446\u0438\u0438
      \u0443\u0447\u0435\u0442\u0430 \u0438 \u0430\u043D\u0430\u043B\u0438\u0437\u0430
      \u0432\u044B\u043F\u043E\u043B\u043D\u0435\u043D\u043D\u044B\u0445 \u0433\u0440\u0443\u0437\u043E\u043F\u0435\u0440\u0435\u0432\u043E\u0437\u043E\u043A
      \u043D\u0435\u043E\u0431\u0445\u043E\u0434\u0438\u043C\u043E \u0443\u0447\u0438\u0442\u044B\u0432\u0430\u0442\u044C
      \u0434\u0430\u0442\u0443 \u0437\u0430\u043A\u0430\u0437\u0430, \u0432\u0440\u0435\u043C\u044F
      \u0432\u044B\u0435\u0437\u0434\u0430, \u0434\u0430\u0442\u0443 \u043F\u0440\u0438\u0431\u044B\u0442\u0438\u044F,
      \u0430\u0434\u0440\u0435\u0441 \u043F\u0440\u0438\u0431\u044B\u0442\u0438\u044F,
      \u043E\u0440\u0433\u0430\u043D\u0438\u0437\u0430\u0446\u0438\u044E, \u0432\u043E\u0434\u0438\u0442\u0435\u043B\u044F,
      \u0442\u0440\u0430\u043D\u0441\u043F\u043E\u0440\u0442\u043D\u043E\u0435 \u0441\u0440\u0435\u0434\u0441\u0442\u0432\u043E,
      \u0443\u0441\u043B\u0443\u0433\u0443, \u0442\u0438\u043F \u0433\u0440\u0443\u0437\u0430,
      \u043E\u0431\u044A\u0435\u043C \u0433\u0440\u0443\u0437\u0430, \u043E\u0431\u0449\u0443\u044E
      \u0441\u0442\u043E\u0438\u043C\u043E\u0441\u0442\u044C. \r\n\u0422\u0430\u043A\u0436\u0435,
      \u043A\u043E\u043C\u043F\u0430\u043D\u0438\u044F \u0433\u0440\u0443\u0437\u043E\u043F\u0435\u0440\u0435\u0432\u043E\u0437\u043E\u043A
      \u043F\u0440\u0435\u0434\u044A\u044F\u0432\u0438\u043B\u0430 \u0442\u0440\u0435\u0431\u043E\u0432\u0430\u043D\u0438\u044F,
      \u0447\u0442\u043E\u0431\u044B \u0432 \u043A\u0430\u0447\u0435\u0441\u0442\u0432\u0435
      \u043E\u0441\u043D\u043E\u0432\u043D\u043E\u0439 \u043C\u043E\u0434\u0435\u043B\u0438
      \u0431\u0430\u0437\u044B \u0434\u0430\u043D\u043D\u044B\u0445 \u0438\u0441\u043F\u043E\u043B\u044C\u0437\u043E\u0432\u0430\u0442\u044C
      \u0440\u0435\u043B\u044F\u0446\u0438\u043E\u043D\u043D\u0443\u044E, \u0442\u0430\u043A
      \u043A\u0430\u043A \u0438\u043C\u0435\u043D\u043D\u043E \u044D\u0442\u0430
      \u043C\u043E\u0434\u0435\u043B\u044C \u043D\u0430\u0438\u0431\u043E\u043B\u0435\u0435
      \u043E\u043F\u0442\u0438\u043C\u0430\u043B\u044C\u043D\u043E \u043F\u043E\u0434\u0445\u043E\u0434\u0438\u0442
      \u0434\u043B\u044F \u0434\u043E\u043B\u0433\u043E\u0441\u0440\u043E\u0447\u043D\u043E\u0433\u043E
      \u0445\u0440\u0430\u043D\u0435\u043D\u0438\u044F \u0434\u0430\u043D\u043D\u044B\u0445
      \u0432 \u0441\u043E\u0433\u043B\u0430\u0441\u043E\u0432\u0430\u043D\u043D\u043E\u043C
      \u0432\u0438\u0434\u0435. \r\n\r\n\u0418\u0441\u0445\u043E\u0434\u044F \u0438\u0437
      \u0434\u0430\u043D\u043D\u043E\u0433\u043E \u043E\u043F\u0438\u0441\u0430\u043D\u0438\u044F,
      \u043F\u0440\u043E\u0433\u0440\u0430\u043C\u043C\u0438\u0441\u0442\u0443 \u043F\u043E\u0441\u0442\u0430\u0432\u043B\u0435\u043D\u0430
      \u0437\u0430\u0434\u0430\u0447\u0430 \u2013 \u0432\u044B\u043F\u043E\u043B\u043D\u0438\u0442\u044C
      \u043B\u043E\u0433\u0438\u0447\u0435\u0441\u043A\u043E\u0435 \u043F\u0440\u043E\u0435\u043A\u0442\u0438\u0440\u043E\u0432\u0430\u043D\u0438\u0435
      \u0431\u0430\u0437\u044B \u0434\u0430\u043D\u043D\u044B\u0445, \u0430 \u0438\u043C\u0435\u043D\u043D\u043E
      \u0432\u044B\u043F\u043E\u043B\u043D\u0438\u0442\u044C:\r\n    \u041F\u043E
      \u0440\u0430\u043D\u0435\u0435 \u043F\u0435\u0440\u0435\u0447\u0438\u0441\u043B\u0435\u043D\u043D\u044B\u043C
      \u0441\u0443\u0449\u043D\u043E\u0441\u0442\u044F\u043C \u043D\u0435\u043E\u0431\u0445\u043E\u0434\u0438\u043C\u043E
      \u043F\u0435\u0440\u0435\u0447\u0438\u0441\u043B\u0438\u0442\u044C \u0438\u0445
      \u0430\u0442\u0440\u0438\u0431\u0443\u0442\u044B;\r\n    \u0414\u043E\u0431\u0430\u0432\u0438\u0442\u044C
      \u043F\u0435\u0440\u0432\u0438\u0447\u043D\u044B\u0435 \u043A\u043B\u044E\u0447\u0438;\r\n   
      \u0412\u044B\u0431\u0440\u0430\u0442\u044C \u0432\u043D\u0435\u0448\u043D\u0438\u0435
      \u043A\u043B\u044E\u0447\u0438 \u0438 \u0443\u0441\u0442\u0430\u043D\u043E\u0432\u0438\u0442\u044C
      \u0441\u0432\u044F\u0437\u0438;\r\n    \u041F\u043E\u0441\u0442\u0440\u043E\u0438\u0442\u044C 
      \u043B\u043E\u0433\u0438\u0447\u0435\u0441\u043A\u0443\u044E \u0441\u0445\u0435\u043C\u0443
      \u0431\u0430\u0437\u044B \u0434\u0430\u043D\u043D\u044B\u0445."
    - "\u041A\u043E\u043C\u043F\u0430\u043D\u0438\u044F, \u0437\u0430\u043D\u0438\u043C\u0430\u044E\u0449\u0430\u044F\u0441\u044F
      \u0433\u0440\u0443\u0437\u043E\u043F\u0435\u0440\u0435\u0432\u043E\u0437\u043A\u0430\u043C\u0438,
      \u0434\u043E\u0431\u0430\u0432\u0438\u043B\u0430 \u0434\u043E\u043F\u043E\u043B\u043D\u0438\u0442\u0435\u043B\u044C\u043D\u044B\u0435
      \u0442\u0440\u0435\u0431\u043E\u0432\u0430\u043D\u0438\u044F, \u0430 \u0438\u043C\u0435\u043D\u043D\u043E
      \u0434\u043B\u044F \u0440\u0430\u0437\u0440\u0430\u0431\u043E\u0442\u0430\u043D\u043D\u043E\u0439
      \u0431\u0430\u0437\u044B \u0434\u0430\u043D\u043D\u044B\u0445 \xAB\u0413\u0440\u0443\u0437\u043E\u043F\u0435\u0440\u0435\u0432\u043E\u0437\u043A\u0438\xBB
      \u0434\u043E\u043B\u0436\u043D\u044B \u0432\u044B\u043F\u043E\u043B\u043D\u044F\u0442\u0441\u044F
      \u0437\u0430\u043F\u0440\u043E\u0441\u044B \u0432\u044B\u0431\u043E\u0440\u043A\u0438,
      \u043E\u0431\u043D\u043E\u0432\u043B\u0435\u043D\u0438\u044F, \u0432\u0441\u0442\u0430\u0432\u043A\u0438
      \u0438 \u0443\u0434\u0430\u043B\u0435\u043D\u0438\u044F \u0434\u0430\u043D\u043D\u044B\u0445.\r\n\r\n\u0418\u0441\u0445\u043E\u0434\u044F
      \u0438\u0437 \u0442\u0440\u0435\u0431\u043E\u0432\u0430\u043D\u0438\u0439 \u0442\u0435\u0445\u043D\u0438\u0447\u0435\u0441\u043A\u043E\u0433\u043E
      \u0437\u0430\u0434\u0430\u043D\u0438\u044F, \u043F\u0440\u043E\u0433\u0440\u0430\u043C\u043C\u0438\u0441\u0442\u0443
      \u043F\u043E\u0441\u0442\u0430\u0432\u043B\u0435\u043D\u0430 \u0437\u0430\u0434\u0430\u0447\u0430
      \u2013 \u0432\u044B\u043F\u043E\u043B\u043D\u0438\u0442\u044C sql-\u0437\u0430\u043F\u0440\u043E\u0441\u044B
      \u043A \u0440\u0430\u0437\u0440\u0430\u0431\u043E\u0442\u0430\u043D\u043D\u043E\u0439
      \u0431\u0430\u0437\u0435 \u0434\u0430\u043D\u043D\u044B\u0445."
    - "\u041A\u043E\u043C\u043F\u0430\u043D\u0438\u044F, \u0437\u0430\u043D\u0438\u043C\u0430\u044E\u0449\u0430\u044F\u0441\u044F
      \u0433\u0440\u0443\u0437\u043E\u043F\u0435\u0440\u0435\u0432\u043E\u0437\u043A\u0430\u043C\u0438,
      \u0434\u043E\u0431\u0430\u0432\u0438\u043B\u0430 \u0434\u043E\u043F\u043E\u043B\u043D\u0438\u0442\u0435\u043B\u044C\u043D\u044B\u0435
      \u0442\u0440\u0435\u0431\u043E\u0432\u0430\u043D\u0438\u044F \u043A \u0434\u0430\u043D\u043D\u044B\u043C,
      \u043A\u043E\u0442\u043E\u0440\u044B\u0435 \u0434\u043E\u043B\u0436\u043D\u044B
      \u0445\u0440\u0430\u043D\u0438\u0442\u0441\u044F \u0432 \u0431\u0430\u0437\u0435
      \u0434\u0430\u043D\u043D\u044B\u0445 \xAB\u0413\u0440\u0443\u0437\u043E\u043F\u0435\u0440\u0435\u0432\u043E\u0437\u043A\u0438\xBB,
      \u0430 \u0438\u043C\u0435\u043D\u043D\u043E: \u043F\u0435\u0440\u0432\u0438\u0447\u043D\u044B\u0435
      \u043A\u043B\u044E\u0447\u0438 \u0434\u043E\u043B\u0436\u043D\u044B \u043D\u0430\u0437\u043D\u0430\u0447\u0430\u0442\u044C\u0441\u044F
      \u0430\u0432\u0442\u043E\u043C\u0430\u0442\u0438\u0447\u0435\u0441\u043A\u0438,
      \u0434\u0430\u0442\u0430 \u0437\u0430\u043A\u0430\u0437\u0430 \u043F\u043E
      \u0443\u043C\u043E\u043B\u0447\u0430\u043D\u0438\u044E \u0440\u0430\u0432\u043D\u0430
      \u0442\u0435\u043A\u0443\u0449\u0435\u0439 \u0434\u0430\u0442\u0435. \r\n\u0418\u0441\u0445\u043E\u0434\u044F
      \u0438\u0437 \u0442\u0440\u0435\u0431\u043E\u0432\u0430\u043D\u0438\u0439 \u0442\u0435\u0445\u043D\u0438\u0447\u0435\u0441\u043A\u043E\u0433\u043E
      \u0437\u0430\u0434\u0430\u043D\u0438\u044F, \u043F\u0440\u043E\u0433\u0440\u0430\u043C\u043C\u0438\u0441\u0442\u0443
      \u043F\u043E\u0441\u0442\u0430\u0432\u043B\u0435\u043D\u0430 \u0437\u0430\u0434\u0430\u0447\u0430
      \u2013 \u0432\u044B\u043F\u043E\u043B\u043D\u0438\u0442\u044C \u0444\u0438\u0437\u0438\u0447\u0435\u0441\u043A\u043E\u0435
      \u043F\u0440\u043E\u0435\u043A\u0442\u0438\u0440\u043E\u0432\u0430\u043D\u0438\u0435
      \u0431\u0430\u0437\u044B \u0434\u0430\u043D\u043D\u044B\u0445, \u0430 \u0438\u043C\u0435\u043D\u043D\u043E
      \u043D\u0435\u043E\u0431\u0445\u043E\u0434\u0438\u043C\u043E \u043D\u0430\u043F\u0438\u0441\u0430\u0442\u044C
      sql-\u0441\u0446\u0435\u043D\u0430\u0440\u0438\u0439 \u0441\u043E\u0437\u0434\u0430\u043D\u0438\u044F
      \u0431\u0430\u0437\u044B \u0434\u0430\u043D\u043D\u044B\u0445, \u0432\u043A\u043B\u044E\u0447\u0430\u044F
      \u0441\u043E\u0437\u0434\u0430\u043D\u0438\u0435 \u0444\u0430\u0439\u043B\u0430
      \u0431\u0430\u0437\u044B \u0434\u0430\u043D\u043D\u044B\u0445 \u0438 \u0432\u0441\u0435\u0445
      \u0442\u0430\u0431\u043B\u0438\u0446. \r"
  erModelVerificationData:
    VerificationEntities:
    - "\u0443\u0441\u043B\u0443\u0433\u0438"
    - "\u043E\u0440\u0433\u0430\u043D\u0438\u0437\u0430\u0446\u0438\u0438"
    - "\u0432\u043E\u0434\u0438\u0442\u0435\u043B\u0438"
    - "\u0442\u0440\u0430\u043D\u0441\u043F\u043E\u0440\u0442"
    - "\u0437\u0430\u043A\u0430\u0437\u044B"
    CountRelationships: 4
    VerificationGraph: {fileID: 11400000, guid: e3679e846cec3684493156240e2843d6, type: 2}
  tableVerifications:
  - Name: "\u0432\u043E\u0434\u0438\u0442\u0435\u043B\u0438"
    FieldVerifications:
    - Name: "\u043A\u043E\u0434\u0432\u043E\u0434\u0438\u0442\u0435\u043B\u044F"
      TypeField: 0
      TypeKey: 1
      LinkTable: 
      LinkField: 
    - Name: "\u0444\u0438\u043E"
      TypeField: 1
      TypeKey: 0
      LinkTable: 
      LinkField: 
    - Name: "\u043F\u0430\u0441\u043F\u043E\u0440\u0442\u043D\u044B\u0435\u0434\u0430\u043D\u043D\u044B\u0435"
      TypeField: 1
      TypeKey: 0
      LinkTable: 
      LinkField: 
    - Name: "\u0430\u0434\u0440\u0435\u0441\u043F\u0440\u043E\u0436\u0438\u0432\u0430\u043D\u0438\u044F"
      TypeField: 1
      TypeKey: 0
      LinkTable: 
      LinkField: 
    - Name: "\u0434\u0430\u0442\u0430\u0440\u043E\u0436\u0434\u0435\u043D\u0438\u044F"
      TypeField: 2
      TypeKey: 0
      LinkTable: 
      LinkField: 
    - Name: "\u0443\u0434\u043E\u0441\u0442\u043E\u0432\u0435\u0440\u0435\u043D\u0438\u0435"
      TypeField: 1
      TypeKey: 0
      LinkTable: 
      LinkField: 
  - Name: "\u0442\u0440\u0430\u043D\u0441\u043F\u043E\u0440\u0442"
    FieldVerifications:
    - Name: "\u043A\u043E\u0434\u0442\u0440\u0430\u043D\u0441\u043F\u043E\u0440\u0442\u0430"
      TypeField: 0
      TypeKey: 1
      LinkTable: 
      LinkField: 
    - Name: "\u0433\u043E\u0441\u043D\u043E\u043C\u0435\u0440"
      TypeField: 1
      TypeKey: 0
      LinkTable: 
      LinkField: 
    - Name: "\u043C\u0430\u0440\u043A\u0430"
      TypeField: 1
      TypeKey: 0
      LinkTable: 
      LinkField: 
    - Name: "\u0433\u0440\u0443\u0437\u043E\u043F\u043E\u0434\u044A\u0435\u043C\u043D\u043E\u0441\u0442\u044C"
      TypeField: 0
      TypeKey: 0
      LinkTable: 
      LinkField: 
    - Name: "\u0438\u0437\u043D\u043E\u0441"
      TypeField: 0
      TypeKey: 0
      LinkTable: 
      LinkField: 
    - Name: "\u0433\u043E\u0434\u0432\u044B\u043F\u0443\u0441\u043A\u0430"
      TypeField: 0
      TypeKey: 0
      LinkTable: 
      LinkField: 
    - Name: "\u0442\u0438\u043F\u043A\u0443\u0437\u043E\u0432\u0430"
      TypeField: 1
      TypeKey: 0
      LinkTable: 
      LinkField: 
  - Name: "\u043E\u0440\u0433\u0430\u043D\u0438\u0437\u0430\u0446\u0438\u0438"
    FieldVerifications:
    - Name: "\u043A\u043E\u0434\u043E\u0440\u0433\u0430\u043D\u0438\u0437\u0430\u0446\u0438\u0438"
      TypeField: 0
      TypeKey: 1
      LinkTable: 
      LinkField: 
    - Name: "\u043D\u0430\u0437\u0432\u0430\u043D\u0438\u0435"
      TypeField: 1
      TypeKey: 0
      LinkTable: 
      LinkField: 
    - Name: "\u0430\u0434\u0440\u0435\u0441"
      TypeField: 1
      TypeKey: 0
      LinkTable: 
      LinkField: 
    - Name: "\u0442\u0435\u043B\u0435\u0444\u043E\u043D"
      TypeField: 1
      TypeKey: 0
      LinkTable: 
      LinkField: 
    - Name: "\u0440\u0430\u0441\u0447\u0435\u0442\u043D\u044B\u0439\u0441\u0447\u0435\u0442"
      TypeField: 1
      TypeKey: 0
      LinkTable: 
      LinkField: 
  - Name: "\u0443\u0441\u043B\u0443\u0433\u0438"
    FieldVerifications:
    - Name: "\u043A\u043E\u0434\u0443\u0441\u043B\u0443\u0433\u0438"
      TypeField: 0
      TypeKey: 1
      LinkTable: 
      LinkField: 
    - Name: "\u043D\u0430\u0437\u0432\u0430\u043D\u0438\u0435"
      TypeField: 1
      TypeKey: 0
      LinkTable: 
      LinkField: 
    - Name: "\u0441\u0442\u043E\u0438\u043C\u043E\u0441\u0442\u044C"
      TypeField: 0
      TypeKey: 0
      LinkTable: 
      LinkField: 
  - Name: "\u0437\u0430\u043A\u0430\u0437\u044B"
    FieldVerifications:
    - Name: "\u043A\u043E\u0434\u0437\u0430\u043A\u0430\u0437\u0430"
      TypeField: 0
      TypeKey: 1
      LinkTable: 
      LinkField: 
    - Name: "\u0434\u0430\u0442\u0430\u0437\u0430\u043A\u0430\u0437\u0430"
      TypeField: 2
      TypeKey: 0
      LinkTable: 
      LinkField: 
    - Name: "\u0432\u0440\u0435\u043C\u044F\u0432\u044B\u0435\u0437\u0434\u0430"
      TypeField: 2
      TypeKey: 0
      LinkTable: 
      LinkField: 
    - Name: "\u0434\u0430\u0442\u0430\u043F\u0440\u0438\u0431\u044B\u0442\u0438\u044F"
      TypeField: 2
      TypeKey: 0
      LinkTable: 
      LinkField: 
    - Name: "\u0430\u0434\u0440\u0435\u0441\u043F\u0440\u0438\u0431\u044B\u0442\u0438\u044F"
      TypeField: 1
      TypeKey: 0
      LinkTable: 
      LinkField: 
    - Name: "\u043A\u043E\u0434\u043E\u0440\u0433\u0430\u043D\u0438\u0437\u0430\u0446\u0438\u0438"
      TypeField: 0
      TypeKey: 2
      LinkTable: "\u043E\u0440\u0433\u0430\u043D\u0438\u0437\u0430\u0446\u0438\u0438"
      LinkField: "\u043A\u043E\u0434\u043E\u0440\u0433\u0430\u043D\u0438\u0437\u0430\u0446\u0438\u0438"
    - Name: "\u043A\u043E\u0434\u0432\u043E\u0434\u0438\u0442\u0435\u043B\u044F"
      TypeField: 0
      TypeKey: 2
      LinkTable: "\u0432\u043E\u0434\u0438\u0442\u0435\u043B\u0438"
      LinkField: "\u043A\u043E\u0434\u0432\u043E\u0434\u0438\u0442\u0435\u043B\u044F"
    - Name: "\u043A\u043E\u0434\u0442\u0440\u0430\u043D\u0441\u043F\u043E\u0440\u0442\u0430"
      TypeField: 0
      TypeKey: 2
      LinkTable: "\u0442\u0440\u0430\u043D\u0441\u043F\u043E\u0440\u0442"
      LinkField: "\u043A\u043E\u0434\u0442\u0440\u0430\u043D\u0441\u043F\u043E\u0440\u0442\u0430"
    - Name: "\u043A\u043E\u0434\u0443\u0441\u043B\u0443\u0433\u0438"
      TypeField: 0
      TypeKey: 2
      LinkTable: "\u0443\u0441\u043B\u0443\u0433\u0438"
      LinkField: "\u043A\u043E\u0434\u0443\u0441\u043B\u0443\u0433\u0438"
    - Name: "\u0442\u0438\u043F\u0433\u0440\u0443\u0437\u0430"
      TypeField: 1
      TypeKey: 0
      LinkTable: 
      LinkField: 
    - Name: "\u043E\u0431\u044A\u0435\u043C\u0433\u0440\u0443\u0437\u0430"
      TypeField: 0
      TypeKey: 0
      LinkTable: 
      LinkField: 
    - Name: "\u043E\u0431\u0449\u0430\u044F\u0441\u0442\u043E\u0438\u043C\u043E\u0441\u0442\u044C"
      TypeField: 0
      TypeKey: 0
      LinkTable: 
      LinkField: 
  visualSQLQueryDatas:
  - SQLQuery: {fileID: 5863791992250370549, guid: 6d577547a6abd8c419478a685b850a2f, type: 3}
    Graph: {fileID: 11400000, guid: 961ea1caaac80a54da8b3175b69e1ba0, type: 2}
    Description: "\u0412\u044B\u0432\u0435\u0441\u0442\u0438 \u0444\u0430\u043C\u0438\u043B\u0438\u0438
      \u0432\u0441\u0435\u0445 \u0432\u043E\u0434\u0438\u0442\u0435\u043B\u0435\u0439,
      \u043E\u0441\u0443\u0449\u0435\u0441\u0442\u0432\u043B\u044F\u044E\u0449\u0438\u0445
      \u0433\u0440\u0443\u0437\u043E\u043F\u0435\u0440\u0435\u0432\u043E\u0437\u043A\u0438
      \u0432 2021 \u0433\u043E\u0434\u0443 \u0438 \u0434\u043E\u0441\u0442\u0430\u0432\u043B\u044F\u044E\u0449\u0438\u0445
      \u0442\u043E\u0432\u0430\u0440\u044B \u0432 \u0442\u043E\u0440\u0433\u043E\u0432\u044B\u0435
      \u0441\u0435\u0442\u0438."
  - SQLQuery: {fileID: 8182555450163912693, guid: 1e5bf9ff527b76445a4594fb3da4827f, type: 3}
    Graph: {fileID: 11400000, guid: 555e9e6a9a0f62849b98d7022ef050d2, type: 2}
    Description: "\u0414\u043E\u0431\u0430\u0432\u0438\u0442\u044C \u043D\u043E\u0432\u0443\u044E
      \u043E\u0440\u0433\u0430\u043D\u0438\u0437\u0430\u0446\u0438\u044E \u0432 \u0431\u0430\u0437\u0443
      \u0434\u0430\u043D\u043D\u044B\u0445: \u041E\u041E\u041E \u0412\u0435\u0433\u0430,
      \u0443\u043B.\u041A\u0438\u0440\u043E\u0432\u0430, 103/67, 89769832465, 1123400"
  - SQLQuery: {fileID: -4126934187983884745, guid: e530474b887295d40a3fce13c12ec250, type: 3}
    Graph: {fileID: 11400000, guid: 8ed7833574584ed4f97944438122b695, type: 2}
    Description: "\u041E\u0431\u043D\u043E\u0432\u0438\u0442\u044C \u0438\u043D\u0444\u043E\u0440\u043C\u0430\u0446\u0438\u044E
      \u043E \u0442\u0440\u0430\u043D\u0441\u043F\u043E\u0440\u0442\u043D\u043E\u043C
      \u0441\u0440\u0435\u0434\u0441\u0442\u0432\u0435 \u0441 \u0433\u043E\u0441\u043D\u043E\u043C\u0435\u0440\u043E\u043C
      \u0421009\u0422, \u0430 \u0438\u043C\u0435\u043D\u043D\u043E \u0443\u0432\u0435\u043B\u0438\u0447\u0438\u0442\u044C
      \u0441\u0442\u0435\u043F\u0435\u043D\u044C \u0438\u0437\u043D\u043E\u0441\u0430
      \u043D\u0430 15%. "
  - SQLQuery: {fileID: 2442540735115421410, guid: 0daeee81abeb2504cbec3b1f3cfa49b8, type: 3}
    Graph: {fileID: 11400000, guid: 7a799cdd2ad79694dbb242826759b91f, type: 2}
    Description: "\u0412\u044B\u0432\u0435\u0441\u0442\u0438 \u043D\u0430\u0437\u0432\u0430\u043D\u0438\u0435
      \u043E\u0440\u0433\u0430\u043D\u0438\u0437\u0430\u0446\u0438\u0438, \u043A\u043E\u0442\u043E\u0440\u0430\u044F
      \u0437\u0430\u043A\u0430\u0437\u0430\u043B\u0430 \u043F\u0435\u0440\u0435\u0432\u043E\u0437\u043A\u0443
      \u043C\u0435\u0431\u0435\u043B\u0438 \u0432 \u0433\u043E\u0440\u043E\u0434
      \u0420\u043E\u0441\u0442\u043E\u0432-\u043D\u0430-\u0414\u043E\u043D\u0443."
  - SQLQuery: {fileID: 759228027004572177, guid: 9e8d92deeba2fd844ac9c8bfb835ca25, type: 3}
    Graph: {fileID: 11400000, guid: 472f56d31a42f394aa0896609bc009f3, type: 2}
    Description: "\u0412\u044B\u0432\u0435\u0441\u0442\u0438 \u0442\u0435\u043B\u0435\u0444\u043E\u043D\u044B
      \u043E\u0440\u0433\u0430\u043D\u0438\u0437\u0430\u0446\u0438\u0439, \u043A\u043E\u0442\u043E\u0440\u044B\u0435
      \u0437\u0430\u043A\u0430\u0437\u044B\u0432\u0430\u043B\u0438 \u044D\u043A\u0441\u043F\u0440\u0435\u0441\u0441-\u043F\u0435\u0440\u0435\u0432\u043E\u0437\u043A\u0438
      \u0432 2021 \u0433\u043E\u0434\u0443 \u0441 \u043E\u0431\u0449\u0435\u0439
      \u0441\u0442\u043E\u0438\u043C\u043E\u0441\u0442\u044C\u044E \u0431\u043E\u043B\u0435\u0435
      300 000 \u0440\u0443\u0431\u043B\u0435\u0439."
  - SQLQuery: {fileID: -3206049051966039180, guid: 63d508bb8119e494bbba7dfea6149002, type: 3}
    Graph: {fileID: 11400000, guid: cff3e60a5c2f4134da14e765c9fde187, type: 2}
    Description: "\u0414\u043E\u0431\u0430\u0432\u0438\u0442\u044C \u043D\u043E\u0432\u044B\u0439
      \u0433\u0440\u0443\u0437\u043E\u0432\u043E\u0439 \u0442\u0440\u0430\u043D\u0441\u043F\u043E\u0440\u0442
      \u0432 \u0431\u0430\u0437\u0443 \u0434\u0430\u043D\u043D\u044B\u0445 \u0441
      \u0433\u043E\u0441\u043D\u043E\u043C\u0435\u0440\u043E\u043C \u0421065\u041C\u041A,
      \u0433\u0430\u0437\u0435\u043B\u044C, \u0433\u0440\u0443\u0437\u043E\u043F\u043E\u0434\u044A\u0435\u043C\u043D\u043E\u0441\u0442\u044C\u044E
      200 \u0442\u043E\u043D\u043D, \u0438\u0437\u043D\u043E\u0441\u043E\u043C \u0440\u0430\u0432\u043D\u044B\u043C
      5, 2000 \u0433\u043E\u0434\u0430 \u0432\u044B\u043F\u0443\u0441\u043A\u0430,
      \u0441 \u0442\u0438\u043F\u043E\u043C \u043A\u0443\u0437\u043E\u0432\u0430
      \u0444\u0443\u0440\u0433\u043E\u043D."
  - SQLQuery: {fileID: 4553061366360996348, guid: d21a53ad3de716847ba84743f05222b9, type: 3}
    Graph: {fileID: 11400000, guid: ed5ae1cbe2a30b44391a964c94c6a887, type: 2}
    Description: "\u0412\u044B\u0432\u0435\u0441\u0442\u0438 \u043A\u043E\u043B\u0438\u0447\u0435\u0441\u0442\u0432\u043E
      \u0432\u0441\u0435\u0445 \u0437\u0430\u043A\u0430\u0437\u043E\u0432, \u043E\u0441\u0443\u0449\u0435\u0441\u0442\u0432\u043B\u0435\u043D\u043D\u044B\u0445
      \u0432 2021 \u0433\u043E\u0434\u0443, \u043F\u0435\u0440\u0435\u0432\u043E\u0437\u0438\u043C\u044B\u0445
      \u0433\u0440\u0443\u0437\u043E\u0432\u0438\u043A\u0430\u043C\u0438. "
  - SQLQuery: {fileID: -2069563981236478694, guid: 39073a143ff5f5b4e999f38f29974e04, type: 3}
    Graph: {fileID: 11400000, guid: 61af44371f2ca6542a012b3498f5e71a, type: 2}
    Description: "\u0412 \u0441\u0432\u044F\u0437\u0438 \u0441 \u043F\u0435\u0440\u0435\u0435\u0437\u0434\u043E\u043C
      \u043E\u0431\u043D\u043E\u0432\u0438\u0442\u044C \u0430\u0434\u0440\u0435\u0441
      \u043E\u0440\u0433\u0430\u043D\u0438\u0437\u0430\u0446\u0438\u0438 \u041E\u041E\u041E
      \u0423\u0440\u0430\u043D \u043D\u0430 \u0443\u043B.\u041C\u0430\u043B\u044B\u0448\u043A\u0438\u043D\u0430,
      \u0434.3 \u0438 \u0442\u0435\u043B\u0435\u0444\u043E\u043D \u043D\u0430 +79881456789."
  - SQLQuery: {fileID: 7374272896855313203, guid: 1cda5679609432945858fcb69932789b, type: 3}
    Graph: {fileID: 11400000, guid: 724e7beab98ede345be6daba45a3bfe2, type: 2}
    Description: "\u0412 \u0441\u0432\u044F\u0437\u0438 \u0441 \u043F\u0435\u0440\u0435\u0440\u0430\u0441\u0447\u0435\u0442\u043E\u043C,
      \u0443\u0432\u0435\u043B\u0438\u0447\u0438\u0442\u044C \u0441\u0442\u043E\u0438\u043C\u043E\u0441\u0442\u044C
      \u043F\u0435\u0440\u0435\u0432\u043E\u0437\u043E\u043A \u043D\u0430\u0447\u0438\u043D\u0430\u044F
      \u0441 30.06.2021 \u043F\u043E 2.07.2021 \u043D\u0430 5%, \u0434\u043B\u044F
      \u043A\u043E\u0442\u043E\u0440\u044B\u0445 \u0431\u044B\u043B\u0438 \u0432\u044B\u043F\u043E\u043B\u043D\u0435\u043D\u0430
      \u044D\u043A\u0441\u043F\u0440\u0435\u0441\u0441-\u043F\u0435\u0440\u0435\u0432\u043E\u0437\u043A\u0430. "
  - SQLQuery: {fileID: 1964784311305001286, guid: a7260909cbc24d5468f5a9c5e0fce33b, type: 3}
    Graph: {fileID: 11400000, guid: 49842128dc2556c4fb1a228a626af1bb, type: 2}
    Description: "\u0412 \u0441\u0432\u044F\u0437\u0438 \u0441 \u0443\u0432\u043E\u043B\u044C\u043D\u0435\u043D\u0438\u0435\u043C
      \u0441\u043E\u0442\u0440\u0443\u0434\u043D\u0438\u043A\u0430 \u0443\u0434\u0430\u043B\u0438\u0442\u044C
      \u0438\u0437 \u0431\u0430\u0437\u044B \u0434\u0430\u043D\u043D\u044B\u0445
      \u0432\u043E\u0434\u0438\u0442\u0435\u043B\u044F \u041F\u0435\u0442\u0440\u043E\u0432\u0430. "
  - SQLQuery: {fileID: 6928996458827123084, guid: b41063002b1adca4180df11b7668a53e, type: 3}
    Graph: {fileID: 11400000, guid: 297a3044e7143c64caaeba00cfe01041, type: 2}
    Description: "\u0412\u044B\u0432\u0435\u0441\u0442\u0438 \u043E\u0431\u0449\u0443\u044E
      \u0441\u0442\u043E\u0438\u043C\u043E\u0441\u0442\u044C \u0432\u0441\u0435\u0445
      \u0437\u0430\u043A\u0430\u0437\u043E\u0432 \u043D\u0430\u0447\u0438\u043D\u0430\u044F
      \u0441 2000 \u0433\u043E\u0434\u0430 \u043F\u043E 2021 \u0433\u043E\u0434."
  - SQLQuery: {fileID: 1169816819072880439, guid: 82a71dcb8feaf2349bd0bf8c4bcf14eb, type: 3}
    Graph: {fileID: 11400000, guid: fbcec6edd1ee9b749921e5617ea60a1e, type: 2}
    Description: "\u0412\u044B\u0432\u0435\u0441\u0442\u0438 \u0434\u043B\u044F \u043A\u0430\u0436\u0434\u043E\u0433\u043E
      \u0432\u043E\u0434\u0438\u0442\u0435\u043B\u044F \u0441\u0443\u043C\u043C\u0430\u0440\u043D\u0443\u044E
      \u0441\u0442\u043E\u0438\u043C\u043E\u0441\u0442\u044C \u043E\u0441\u0443\u0449\u0435\u0441\u0442\u0432\u043B\u0435\u043D\u043D\u044B\u0445
      \u0438\u043C \u043F\u0435\u0440\u0435\u0432\u043E\u0437\u043E\u043A \u0432
      2021 \u0433\u043E\u0434\u0443."
  _SQLCodeDatas:
  - Tittle: "\u0412\u0432\u0435\u0434\u0438\u0442\u0435 \u043A\u043E\u043C\u0430\u043D\u0434\u0443
      \u0441\u043E\u0437\u0434\u0430\u043D\u0438\u044F \u0431\u0430\u0437\u044B \u0434\u0430\u043D\u043D\u044B\u0445"
    FinalCode: "create database \u0433\u0440\u0443\u0437\u043E\u043F\u0435\u0440\u0435\u0432\u043E\u0437\u043A\u0438"
    StartCode: 
  - Tittle: "\u0417\u0430\u043F\u043E\u043B\u043D\u0438\u0442\u0435 \u0437\u0430\u043F\u0440\u043E\u0441
      \u0441\u043E\u0437\u0434\u0430\u043D\u0438\u044F \u0442\u0430\u0431\u043B\u0438\u0446\u044B
      \u0432\u043E\u0434\u0438\u0442\u0435\u043B\u0438"
    FinalCode: "create table \u0432\u043E\u0434\u0438\u0442\u0435\u043B\u0438\n(\n   
      \u043A\u043E\u0434\u0432\u043E\u0434\u0438\u0442\u0435\u043B\u044F int primary
      key identity(1,1),\n    \u0444\u0438\u043E varchar(100),\n    \u043F\u0430\u0441\u043F\u043E\u0440\u0442\u043D\u044B\u0435\u0434\u0430\u043D\u043D\u044B\u0435
      varchar(100),\n    \u0430\u0434\u0440\u0435\u0441\u043F\u0440\u043E\u0436\u0438\u0432\u0430\u043D\u0438\u044F
      varchar(100),\n    \u0434\u0430\u0442\u0430\u0440\u043E\u0436\u0434\u0435\u043D\u0438\u044F
      date,\n    \u0443\u0434\u043E\u0441\u0442\u043E\u0432\u0435\u0440\u0435\u043D\u0438\u0435
      varchar(100)\n)"
    StartCode: "\n(\n    \u043A\u043E\u0434\u0432\u043E\u0434\u0438\u0442\u0435\u043B\u044F\n   
      \u0444\u0438\u043E\n    \u043F\u0430\u0441\u043F\u043E\u0440\u0442\u043D\u044B\u0435\u0434\u0430\u043D\u043D\u044B\u0435\n   
      \u0430\u0434\u0440\u0435\u0441\u043F\u0440\u043E\u0436\u0438\u0432\u0430\u043D\u0438\u044F\n   
      \u0434\u0430\u0442\u0430\u0440\u043E\u0436\u0434\u0435\u043D\u0438\u044F\n   
      \u0443\u0434\u043E\u0441\u0442\u043E\u0432\u0435\u0440\u0435\u043D\u0438\u0435\n)"
  - Tittle: "\u0417\u0430\u043F\u043E\u043B\u043D\u0438\u0442\u0435 \u0437\u0430\u043F\u0440\u043E\u0441
      \u0441\u043E\u0437\u0434\u0430\u043D\u0438\u044F \u0442\u0430\u0431\u043B\u0438\u0446\u044B
      \u0442\u0440\u0430\u043D\u0441\u043F\u043E\u0440\u0442"
    FinalCode: "create table \u0442\u0440\u0430\u043D\u0441\u043F\u043E\u0440\u0442\n(\n   
      \u043A\u043E\u0434\u0442\u0440\u0430\u043D\u0441\u043F\u043E\u0440\u0442\u0430
      int primary key identity(1,1),\n    \u0433\u043E\u0441\u043D\u043E\u043C\u0435\u0440
      varchar(100),\n    \u043C\u0430\u0440\u043A\u0430 varchar(100),\n    \u0433\u0440\u0443\u0437\u043E\u043F\u043E\u0434\u044A\u0435\u043C\u043D\u043E\u0441\u0442\u044C
      int,\n    \u0438\u0437\u043D\u043E\u0441 float,\n    \u0433\u043E\u0434\u0432\u044B\u043F\u0443\u0441\u043A\u0430
      int,\n    \u0442\u0438\u043F\u043A\u0443\u0437\u043E\u0432\u0430 varchar(100)\n)"
    StartCode: "\n(\n    \u043A\u043E\u0434\u0442\u0440\u0430\u043D\u0441\u043F\u043E\u0440\u0442\u0430\n   
      \u0433\u043E\u0441\u043D\u043E\u043C\u0435\u0440\n    \u043C\u0430\u0440\u043A\u0430\n   
      \u0433\u0440\u0443\u0437\u043E\u043F\u043E\u0434\u044A\u0435\u043C\u043D\u043E\u0441\u0442\u044C\n   
      \u0438\u0437\u043D\u043E\u0441\n    \u0433\u043E\u0434\u0432\u044B\u043F\u0443\u0441\u043A\u0430\n   
      \u0442\u0438\u043F\u043A\u0443\u0437\u043E\u0432\u0430\n)"
  - Tittle: "\u0417\u0430\u043F\u043E\u043B\u043D\u0438\u0442\u0435 \u0437\u0430\u043F\u0440\u043E\u0441
      \u0441\u043E\u0437\u0434\u0430\u043D\u0438\u044F \u0442\u0430\u0431\u043B\u0438\u0446\u044B
      \u043E\u0440\u0433\u0430\u043D\u0438\u0437\u0430\u0446\u0438\u0438"
    FinalCode: "create table \u043E\u0440\u0433\u0430\u043D\u0438\u0437\u0430\u0446\u0438\u0438\n(\n   
      \u043A\u043E\u0434\u043E\u0440\u0433\u0430\u043D\u0438\u0437\u0430\u0446\u0438\u0438
      int primary key identity(1,1),\n    \u043D\u0430\u0437\u0432\u0430\u043D\u0438\u0435
      varchar(100),\n    \u0430\u0434\u0440\u0435\u0441 varchar(100),\n    \u0442\u0435\u043B\u0435\u0444\u043E\u043D
      varchar(100),\n    \u0440\u0430\u0441\u0447\u0435\u0442\u043D\u044B\u0439\u0441\u0447\u0435\u0442
      varchar(100)\n)"
    StartCode: "\n(\n    \u043A\u043E\u0434\u043E\u0440\u0433\u0430\u043D\u0438\u0437\u0430\u0446\u0438\u0438\n   
      \u043D\u0430\u0437\u0432\u0430\u043D\u0438\u0435\n    \u0430\u0434\u0440\u0435\u0441\n   
      \u0442\u0435\u043B\u0435\u0444\u043E\u043D\n    \u0440\u0430\u0441\u0447\u0435\u0442\u043D\u044B\u0439\u0441\u0447\u0435\u0442\n)"
  - Tittle: "\u0417\u0430\u043F\u043E\u043B\u043D\u0438\u0442\u0435 \u0437\u0430\u043F\u0440\u043E\u0441
      \u0441\u043E\u0437\u0434\u0430\u043D\u0438\u044F \u0442\u0430\u0431\u043B\u0438\u0446\u044B
      \u0443\u0441\u043B\u0443\u0433\u0438"
    FinalCode: "create table \u0443\u0441\u043B\u0443\u0433\u0438\n(\n    \u043A\u043E\u0434\u0443\u0441\u043B\u0443\u0433\u0438
      int primary key identity(1,1),\n    \u043D\u0430\u0437\u0432\u0430\u043D\u0438\u0435
      varchar(100),\n    \u0441\u0442\u043E\u0438\u043C\u043E\u0441\u0442\u044C int\n)"
    StartCode: "\n(\n    \u043A\u043E\u0434\u0443\u0441\u043B\u0443\u0433\u0438\n   
      \u043D\u0430\u0437\u0432\u0430\u043D\u0438\u0435\n    \u0441\u0442\u043E\u0438\u043C\u043E\u0441\u0442\u044C\n)"
  - Tittle: "\u0417\u0430\u043F\u043E\u043B\u043D\u0438\u0442\u0435 \u0437\u0430\u043F\u0440\u043E\u0441
      \u0441\u043E\u0437\u0434\u0430\u043D\u0438\u044F \u0442\u0430\u0431\u043B\u0438\u0446\u044B
      \u0437\u0430\u043A\u0430\u0437\u044B"
    FinalCode: "create table \u0437\u0430\u043A\u0430\u0437\u044B\n(\n    \u043A\u043E\u0434\u0437\u0430\u043A\u0430\u0437\u0430
      int primary key identity(1,1),\n    \u0434\u0430\u0442\u0430\u0437\u0430\u043A\u0430\u0437\u0430
      date default getdate(),\n    \u0432\u0440\u0435\u043C\u044F\u0437\u0430\u043A\u0430\u0437\u0430
      time,\n    \u0434\u0430\u0442\u0430\u043F\u0440\u0438\u0431\u044B\u0442\u0438\u044F
      date,\n    \u0430\u0434\u0440\u0435\u0441\u043F\u0440\u0438\u0431\u044B\u0442\u0438\u044F
      varchar(100),\n    \u043A\u043E\u0434\u043E\u0440\u0433\u0430\u043D\u0438\u0437\u0430\u0446\u0438\u0438
      int foreign key (\u043A\u043E\u0434\u043E\u0440\u0433\u0430\u043D\u0438\u0437\u0430\u0446\u0438\u0438)
      references \u043E\u0440\u0433\u0430\u043D\u0438\u0437\u0430\u0446\u0438\u0438
      (\u043A\u043E\u0434\u043E\u0440\u0433\u0430\u043D\u0438\u0437\u0430\u0446\u0438\u0438),\n   
      \u043A\u043E\u0434\u0432\u043E\u0434\u0438\u0442\u0435\u043B\u044F int foreign
      key (\u043A\u043E\u0434\u0432\u043E\u0434\u0438\u0442\u0435\u043B\u044F) references
      \u0432\u043E\u0434\u0438\u0442\u0435\u043B\u0438 (\u043A\u043E\u0434\u0432\u043E\u0434\u0438\u0442\u0435\u043B\u044F),\n   
      \u043A\u043E\u0434\u0442\u0440\u0430\u043D\u0441\u043F\u043E\u0440\u0442\u0430
      int foreign key (\u043A\u043E\u0434\u0442\u0440\u0430\u043D\u0441\u043F\u043E\u0440\u0442\u0430)
      references \u0442\u0440\u0430\u043D\u0441\u043F\u043E\u0440\u0442 (\u043A\u043E\u0434\u0442\u0440\u0430\u043D\u0441\u043F\u043E\u0440\u0442\u0430),\n   
      \u043A\u043E\u0434\u0443\u0441\u043B\u0443\u0433\u0438 int foreign key (\u043A\u043E\u0434\u0443\u0441\u043B\u0443\u0433\u0438)
      references \u0443\u0441\u043B\u0443\u0433\u0438 (\u043A\u043E\u0434\u0443\u0441\u043B\u0443\u0433\u0438),\n   
      \u0442\u0438\u043F\u0433\u0440\u0443\u0437\u0430 varchar(100),\n    \u043E\u0431\u044A\u0435\u043C\u0433\u0440\u0443\u0437\u0430
      int,\n    \u043E\u0431\u0449\u0430\u044F\u0441\u0442\u043E\u0438\u043C\u043E\u0441\u0442\u044C
      int\n)"
    StartCode: "\n(\n    \u043A\u043E\u0434\u0437\u0430\u043A\u0430\u0437\u0430\n   
      \u0434\u0430\u0442\u0430\u0437\u0430\u043A\u0430\u0437\u0430\n    \u0432\u0440\u0435\u043C\u044F\u0437\u0430\u043A\u0430\u0437\u0430\n   
      \u0434\u0430\u0442\u0430\u043F\u0440\u0438\u0431\u044B\u0442\u0438\u044F\n   
      \u0430\u0434\u0440\u0435\u0441\u043F\u0440\u0438\u0431\u044B\u0442\u0438\u044F\n   
      \u043A\u043E\u0434\u043E\u0440\u0433\u0430\u043D\u0438\u0437\u0430\u0446\u0438\u0438\n   
      \u043A\u043E\u0434\u0432\u043E\u0434\u0438\u0442\u0435\u043B\u044F\n    \u043A\u043E\u0434\u0442\u0440\u0430\u043D\u0441\u043F\u043E\u0440\u0442\u0430\n   
      \u043A\u043E\u0434\u0443\u0441\u043B\u0443\u0433\u0438\n    \u0442\u0438\u043F\u0433\u0440\u0443\u0437\u0430\n   
      \u043E\u0431\u044A\u0435\u043C\u0433\u0440\u0443\u0437\u0430\n    \u043E\u0431\u0449\u0430\u044F\u0441\u0442\u043E\u0438\u043C\u043E\u0441\u0442\u044C\n)"
